[
    {
      "_id": 1,
      "name": "Johnny",
      "startingPoint": "Maryville",
      "endingPoint": "Parnell",
      "durationHours": 1,
      "pilotId": 123,
      "planeId": 8473
    },
    {
        "_id": 2,
        "name": "Heather",
        "startingPoint": "Park Rapids",
        "endingPoint": "Maryville",
        "durationHours": 5,
        "pilotId": 456,
        "planeId": 9836
      },
      {
        "_id": 3,
        "name": "Alex",
        "startingPoint": "Branson",
        "endingPoint": "Columbia",
        "durationHours": 3,
        "pilotId": 789,
        "planeId": 7462
      }
]